hyperparamter-tuning
…
collect_metrics(model_params)

# A tibble: 60 × 8
   trees min_n .metric .estimator   mean     n std_err .config              
   <int> <int> <chr>   <chr>       <dbl> <int>   <dbl> <chr>                
 1     1    14 mae     standard   0.136     10 0.00791 Preprocessor1_Model01
 2     1    14 rmse    standard   0.193     10 0.0127  Preprocessor1_Model01
 3     1    14 rsq     standard   0.827     10 0.0228  Preprocessor1_Model01
 4   106    24 mae     standard   0.104     10 0.00439 Preprocessor1_Model02
 5   106    24 rmse    standard   0.145     10 0.00711 Preprocessor1_Model02
 6   106    24 rsq     standard   0.904     10 0.0116  Preprocessor1_Model02
 7   211    34 mae     standard   0.107     10 0.00504 Preprocessor1_Model03
 8   211    34 rmse    standard   0.147     10 0.00786 Preprocessor1_Model03
 9   211    34 rsq     standard   0.901     10 0.0124  Preprocessor1_Model03
10   316     6 mae     standard   0.0998    10 0.00415 Preprocessor1_Model04
# ℹ 50 more rows
…
